…
We have 153 families and 29 orders, they gather variable number of species :


```r
fams <- dat %>% dplyr::count(family)
```


```r
dat %>% dplyr::count(order)
```

```
## # A tibble: 29 x 2
##    order               n
##    <fct>           <int>
##  1 Artiodactyla      240
##  2 Carnivora         286
##  3 Primates          376
##  4 Didelphimorphia    87
##  5 Cingulata          21
##  6 Rodentia         2277
##  7 Cetacea            84
##  8 Erinaceomorpha     24
##  9 Diprotodontia     143
## 10 Chiroptera       1116
## # … with 19 more rows
```
…
```r
dat %>%
  dplyr::filter(!is.na(homerange)) %>%
  dplyr::group_by(family) %>%
  dplyr::summarise(m = mean(homerange), sd = sd(homerange),n = dplyr::n())
```

```
## # A tibble: 93 x 4
##    family               m        sd     n
##    <fct>            <dbl>     <dbl> <int>
##  1 Camelidae    0.13       NA           1
##  2 Canidae     49.6       176.         21
##  3 Bovidae     44.6       159.         24
##  4 Pitheciidae  0.8         1.27        7
##  5 Didelphidae  0.0704      0.160      10
##  6 Dasypodidae  1.38        2.14        4
##  7 Muridae      0.00336     0.00839    35
##  8 Spalacidae   0.0000732  NA           1
##  9 Cricetidae   0.00305     0.00572    62
## 10 Erinaceidae  0.0255      0.0306      4
## # … with 83 more rows
```
…
